{
  "project_info": {
    "project_number": "1095010675931",
    "firebase_url": "https://graphite-tesla-467.firebaseio.com",
    "project_id": "graphite-tesla-467",
    "storage_bucket": "graphite-tesla-467.appspot.com"
  },
  "client": [
    {
      "client_info": {
        "mobilesdk_app_id": "1:1095010675931:android:74d26324c906246bdb30fe",
        "android_client_info": {
          "package_name": "com.adria.adriatestapp"
        }
      },
      "oauth_client": [
        {
          "client_id": "1095010675931-613ijtt52kh11rr4864ot31u8ebn2v42.apps.googleusercontent.com",
          "client_type": 3
        }
      ],
      "api_key": [
        {
          "current_key": "AIzaSyA2CvZCi1j4yj1Cwys9CCqr5-U6B6BfLy0"
        }
      ],
      "services": {
        "appinvite_service": {
          "other_platform_oauth_client": [
            {
              "client_id": "1095010675931-613ijtt52kh11rr4864ot31u8ebn2v42.apps.googleusercontent.com",
              "client_type": 3
            }
          ]
        }
      }
    }
  ],
  "configuration_version": "1"
}